0	1.000E+05	0	0
1.000E-03	7.794E+03	5.916E-03	0.000E+00
1.035E-03	7.245E+03	6.244E-03	0.000E+00
1.072E-03	6.736E+03	6.586E-03	0.000E+00
1.073E-03	7.924E+03	6.587E-03	0.000E+00
1.500E-03	3.801E+03	1.065E-02	0.000E+00
2.000E-03	1.917E+03	1.541E-02	0.000E+00
3.000E-03	7.003E+02	2.459E-02	0.000E+00
4.000E-03	3.351E+02	3.292E-02	0.000E+00
4.557E-03	2.387E+02	3.712E-02	0.000E+00
4.558E-03	6.585E+02	3.712E-02	0.000E+00
4.702E-03	6.166E+02	3.816E-02	0.000E+00
4.852E-03	5.774E+02	3.923E-02	0.000E+00
4.853E-03	7.719E+02	3.923E-02	0.000E+00
5.000E-03	7.277E+02	4.026E-02	0.000E+00
5.188E-03	6.611E+02	4.155E-02	0.000E+00
5.189E-03	7.604E+02	4.155E-02	0.000E+00
6.000E-03	5.297E+02	4.679E-02	0.000E+00
8.000E-03	2.489E+02	5.799E-02	0.000E+00
1.000E-02	1.375E+02	6.731E-02	0.000E+00
1.500E-02	4.570E+01	8.410E-02	0.000E+00
2.000E-02	2.062E+01	9.463E-02	0.000E+00
3.000E-02	6.607E+00	1.067E-01	0.000E+00
3.317E-02	4.972E+00	1.090E-01	0.000E+00
3.318E-02	2.976E+01	1.090E-01	0.000E+00
4.000E-02	1.824E+01	1.127E-01	0.000E+00
5.000E-02	1.006E+01	1.157E-01	0.000E+00
6.000E-02	6.111E+00	1.169E-01	0.000E+00
8.000E-02	2.746E+00	1.165E-01	0.000E+00
1.000E-01	1.462E+00	1.144E-01	0.000E+00
1.500E-01	4.592E-01	1.071E-01	0.000E+00
2.000E-01	2.019E-01	1.000E-01	0.000E+00
3.000E-01	6.481E-02	8.860E-02	0.000E+00
4.000E-01	2.987E-02	8.009E-02	0.000E+00
5.000E-01	1.684E-02	7.351E-02	0.000E+00
6.000E-01	1.079E-02	6.822E-02	0.000E+00
8.000E-01	5.588E-03	6.012E-02	0.000E+00
1.000E+00	3.491E-03	5.413E-02	0.000E+00
1.022E+00	3.323E-03	5.355E-02	0.000E+00
1.250E+00	2.240E-03	4.846E-02	1.634E-04
1.500E+00	1.604E-03	4.407E-02	7.594E-04
2.000E+00	9.761E-04	3.764E-02	2.575E-03
2.044E+00	9.415E-04	3.717E-02	2.751E-03
3.000E+00	5.178E-04	2.963E-02	6.528E-03
4.000E+00	3.428E-04	2.472E-02	1.005E-02
5.000E+00	2.535E-04	2.135E-02	1.311E-02
6.000E+00	2.000E-04	1.887E-02	1.576E-02
7.000E+00	1.647E-04	1.697E-02	1.812E-02
8.000E+00	1.398E-04	1.544E-02	2.026E-02
9.000E+00	1.212E-04	1.420E-02	2.219E-02
1.000E+01	1.069E-04	1.315E-02	2.396E-02
1.100E+01	9.565E-05	1.227E-02	2.560E-02
1.200E+01	8.648E-05	1.150E-02	2.710E-02
1.300E+01	7.888E-05	1.084E-02	2.851E-02
1.400E+01	7.249E-05	1.025E-02	2.981E-02
1.500E+01	6.706E-05	9.737E-03	3.101E-02
1.600E+01	6.240E-05	9.271E-03	3.212E-02
1.800E+01	5.472E-05	8.471E-03	3.417E-02
2.000E+01	4.873E-05	7.811E-03	3.599E-02