0.0E+00	1.000E+05	0.000E+00	0.000E+00
1.000E-03	1.183E+03	1.427E-02	0.000E+00
1.500E-03	4.002E+02	2.477E-02	0.000E+00
1.560E-03	3.600E+02	2.594E-02	0.000E+00
1.561E-03	3.955E+03	2.594E-02	0.000E+00
2.000E-03	2.261E+03	3.375E-02	0.000E+00
3.000E-03	7.865E+02	4.732E-02	0.000E+00
4.000E-03	3.591E+02	5.810E-02	0.000E+00
5.000E-03	1.922E+02	6.787E-02	0.000E+00
6.000E-03	1.143E+02	7.696E-02	0.000E+00
8.000E-03	4.950E+01	9.292E-02	0.000E+00
1.000E-02	2.556E+01	1.058E-01	0.000E+00
1.500E-02	7.515E+00	1.265E-01	0.000E+00
2.000E-02	3.100E+00	1.371E-01	0.000E+00
3.000E-02	8.722E-01	1.464E-01	0.000E+00
4.000E-02	3.504E-01	1.494E-01	0.000E+00
5.000E-02	1.718E-01	1.496E-01	0.000E+00
6.000E-02	9.564E-02	1.483E-01	0.000E+00
8.000E-02	3.783E-02	1.439E-01	0.000E+00
1.000E-01	1.840E-02	1.388E-01	0.000E+00
1.500E-01	4.993E-03	1.267E-01	0.000E+00
2.000E-01	2.002E-03	1.168E-01	0.000E+00
3.000E-01	5.743E-04	1.021E-01	0.000E+00
4.000E-01	2.480E-04	9.162E-02	0.000E+00
5.000E-01	1.344E-04	8.374E-02	0.000E+00
6.000E-01	8.401E-05	7.754E-02	0.000E+00
8.000E-01	4.252E-05	6.814E-02	0.000E+00
1.000E+00	2.643E-05	6.129E-02	0.000E+00
1.022E+00	2.489E-05	6.064E-02	0.000E+00
1.250E+00	1.688E-05	5.482E-02	3.134E-05
1.500E+00	1.222E-05	4.982E-02	1.708E-04
2.000E+00	7.633E-06	4.252E-02	6.747E-04
2.044E+00	7.381E-06	4.201E-02	7.272E-04
3.000E+00	4.223E-06	3.346E-02	1.918E-03
4.000E+00	2.881E-06	2.790E-02	3.102E-03
5.000E+00	2.175E-06	2.411E-02	4.154E-03
6.000E+00	1.744E-06	2.130E-02	5.098E-03
7.000E+00	1.453E-06	1.915E-02	5.937E-03
8.000E+00	1.245E-06	1.743E-02	6.694E-03
9.000E+00	1.088E-06	1.602E-02	7.377E-03
1.000E+01	9.664E-07	1.484E-02	7.999E-03
1.100E+01	8.691E-07	1.384E-02	8.564E-03
1.200E+01	7.894E-07	1.298E-02	9.082E-03
1.300E+01	7.229E-07	1.223E-02	9.562E-03
1.400E+01	6.669E-07	1.157E-02	1.001E-02
1.500E+01	6.187E-07	1.099E-02	1.043E-02
1.600E+01	5.772E-07	1.046E-02	1.082E-02
1.800E+01	5.087E-07	9.562E-03	1.154E-02
2.000E+01	4.546E-07	8.818E-03	1.218E-02
